\relax 
\catcode `:\active 
\catcode `;\active 
\catcode `!\active 
\catcode `?\active 
\select@language{french}
\@writefile{toc}{\select@language{french}}
\@writefile{lof}{\select@language{french}}
\@writefile{lot}{\select@language{french}}
\@writefile{toc}{\contentsline {chapter}{\numberline {1}Introduction G\IeC {\'e}n\IeC {\'e}rale}{4}}
\@writefile{lof}{\addvspace {10\p@ }}
\@writefile{lot}{\addvspace {10\p@ }}
\@writefile{lof}{\contentsline {figure}{\numberline {1.1}{\ignorespaces Pr\IeC {\'e}sence du sopraSteria dans le monde\relax }}{4}}
\providecommand*\caption@xref[2]{\@setref\relax\@undefined{#1}}
\newlabel{fig:method}{{1.1}{4}}
\@writefile{lof}{\contentsline {figure}{\numberline {1.2}{\ignorespaces Secteurs d'activit\IeC {\'e}\relax }}{5}}
\newlabel{fig:method}{{1.2}{5}}
\@writefile{lof}{\contentsline {figure}{\numberline {1.3}{\ignorespaces Objectifs du projet\relax }}{6}}
\newlabel{fig:method}{{1.3}{6}}
\@writefile{toc}{\contentsline {chapter}{\numberline {2}Etat de l'art}{7}}
\@writefile{lof}{\addvspace {10\p@ }}
\@writefile{lot}{\addvspace {10\p@ }}
\@writefile{toc}{\contentsline {section}{\numberline {2.1}Introduction}{7}}
\@writefile{toc}{\contentsline {section}{\numberline {2.2}Concepts de base}{7}}
\@writefile{toc}{\contentsline {subsection}{\numberline {2.2.1}Les acteurs principeaux}{7}}
\@writefile{toc}{\contentsline {subsection}{\numberline {2.2.2}Maladie}{7}}
\@writefile{lof}{\contentsline {figure}{\numberline {2.1}{\ignorespaces Types de pr\IeC {\'e}station\relax }}{8}}
\newlabel{fig:method}{{2.1}{8}}
\@writefile{toc}{\contentsline {subsection}{\numberline {2.2.3}Maternit\IeC {\'e}}{8}}
\@writefile{toc}{\contentsline {subsection}{\numberline {2.2.4}Paternite}{8}}
\@writefile{toc}{\contentsline {subsection}{\numberline {2.2.5}Adoption}{8}}
\@writefile{toc}{\contentsline {section}{\numberline {2.3}Conclusion}{8}}
\@writefile{lof}{\contentsline {figure}{\numberline {2.2}{\ignorespaces Types de pr\IeC {\'e}station\relax }}{9}}
\newlabel{fig:method}{{2.2}{9}}
\@writefile{toc}{\contentsline {chapter}{\numberline {3}Etude conceptuelle}{10}}
\@writefile{lof}{\addvspace {10\p@ }}
\@writefile{lot}{\addvspace {10\p@ }}
\@writefile{toc}{\contentsline {section}{\numberline {3.1}Introduciton}{10}}
\@writefile{toc}{\contentsline {section}{\numberline {3.2}Description Globale de la solution}{10}}
\@writefile{toc}{\contentsline {section}{\numberline {3.3}D\IeC {\'e}marche globale}{10}}
\@writefile{lof}{\contentsline {figure}{\numberline {3.1}{\ignorespaces Description globale de la solution\relax }}{11}}
\newlabel{fig:method}{{3.1}{11}}
\@writefile{lof}{\contentsline {figure}{\numberline {3.2}{\ignorespaces M\IeC {\'e}thodologie du travail ARPEGE\relax }}{11}}
\newlabel{fig:method}{{3.2}{11}}
\@writefile{toc}{\contentsline {section}{\numberline {3.4}Socle fonctionnel de l'application}{11}}
\@writefile{lof}{\contentsline {figure}{\numberline {3.3}{\ignorespaces Planification du projet\relax }}{12}}
\newlabel{fig:plan}{{3.3}{12}}
\@writefile{toc}{\contentsline {subsection}{\numberline {3.4.1}Faits g\IeC {\'e}n\IeC {\'e}rateurs}{12}}
\@writefile{toc}{\contentsline {subsection}{\numberline {3.4.2}Eligibilit\IeC {\'e} et recevabilit\IeC {\'e}}{12}}
\@writefile{toc}{\contentsline {subsection}{\numberline {3.4.3}Revenus}{13}}
\@writefile{toc}{\contentsline {subsection}{\numberline {3.4.4}Liquidation}{13}}
\@writefile{toc}{\contentsline {subsection}{\numberline {3.4.5}Ech\IeC {\'e}ance}{13}}
\@writefile{toc}{\contentsline {subsection}{\numberline {3.4.6}Fiscalit\IeC {\'e}}{13}}
\@writefile{toc}{\contentsline {subsection}{\numberline {3.4.7}Cl\IeC {\^o}ture}{14}}
\@writefile{toc}{\contentsline {subsection}{\numberline {3.4.8}R\IeC {\'e}gularisation}{14}}
\@writefile{toc}{\contentsline {subsection}{\numberline {3.4.9}Communication}{14}}
\@writefile{toc}{\contentsline {section}{\numberline {3.5}Socle technique de l'application}{14}}
\@writefile{lof}{\contentsline {figure}{\numberline {3.4}{\ignorespaces Sch\IeC {\'e}ma fonctionnel de l'application ARPEGE\relax }}{15}}
\newlabel{fig:method}{{3.4}{15}}
\@writefile{toc}{\contentsline {chapter}{\numberline {4}R\IeC {\'e}alisation et Validation}{16}}
\@writefile{lof}{\addvspace {10\p@ }}
\@writefile{lot}{\addvspace {10\p@ }}
\@writefile{toc}{\contentsline {chapter}{\numberline {5}Ma contribution}{17}}
\@writefile{lof}{\addvspace {10\p@ }}
\@writefile{lot}{\addvspace {10\p@ }}
\@writefile{toc}{\contentsline {chapter}{\numberline {6}Conclusion G\IeC {\'e}n\IeC {\'e}rale}{18}}
\@writefile{lof}{\addvspace {10\p@ }}
\@writefile{lot}{\addvspace {10\p@ }}
